%YAML 1.1
%TAG !u! tag:unity3d.com,2011:
--- !u!114 &11400000
MonoBehaviour:
  m_ObjectHideFlags: 0
  m_CorrespondingSourceObject: {fileID: 0}
  m_PrefabInstance: {fileID: 0}
  m_PrefabAsset: {fileID: 0}
  m_GameObject: {fileID: 0}
  m_Enabled: 1
  m_EditorHideFlags: 0
  m_Script: {fileID: 11500000, guid: 87d24694661f7c643ac46a2e548d3d14, type: 3}
  m_Name: AdditionalColorPreset1
  m_EditorClassIdentifier: 
  ColorPresetID: 2
  BaseLevelObjectsColor: {r: 0.7921569, g: 0.7921569, b: 0.7921569, a: 1}
  ObstaclesColor: {r: 1, g: 0, b: 0, a: 1}
  BackgroundColor: {r: 0.1929067, g: 0.7011893, b: 0.8018868, a: 0}
  PlayerColor: {r: 0.9716981, g: 0.8296102, b: 0.9085131, a: 1}
