%YAML 1.1
%TAG !u! tag:unity3d.com,2011:
--- !u!114 &11400000
MonoBehaviour:
  m_ObjectHideFlags: 0
  m_CorrespondingSourceObject: {fileID: 0}
  m_PrefabInstance: {fileID: 0}
  m_PrefabAsset: {fileID: 0}
  m_GameObject: {fileID: 0}
  m_Enabled: 1
  m_EditorHideFlags: 0
  m_Script: {fileID: 11500000, guid: 87d24694661f7c643ac46a2e548d3d14, type: 3}
  m_Name: CyberpunkColorPreset
  m_EditorClassIdentifier: 
  ColorPresetID: 5
  BaseLevelObjectsColor: {r: 0.82745105, g: 0.78823537, b: 0.7294118, a: 0}
  ObstaclesColor: {r: 0.9686275, g: 0.023529414, b: 0.45098042, a: 0}
  BackgroundColor: {r: 0.27058825, g: 0.10980393, b: 0.6156863, a: 0}
  PlayerColor: {r: 0.52156866, g: 0, b: 0.9686275, a: 0}
