%YAML 1.1
%TAG !u! tag:unity3d.com,2011:
--- !u!114 &11400000
MonoBehaviour:
  m_ObjectHideFlags: 0
  m_CorrespondingSourceObject: {fileID: 0}
  m_PrefabInstance: {fileID: 0}
  m_PrefabAsset: {fileID: 0}
  m_GameObject: {fileID: 0}
  m_Enabled: 1
  m_EditorHideFlags: 0
  m_Script: {fileID: 11500000, guid: 87d24694661f7c643ac46a2e548d3d14, type: 3}
  m_Name: DarkModeColorPreset
  m_EditorClassIdentifier: 
  ColorPresetID: 1
  BaseLevelObjectsColor: {r: 0.5566038, g: 0.5566038, b: 0.5566038, a: 0}
  ObstaclesColor: {r: 0.3490566, g: 0.0049394714, b: 0.0049394714, a: 0}
  BackgroundColor: {r: 0.21698111, g: 0.15205516, b: 0.041963324, a: 0}
  PlayerColor: {r: 0.8018868, g: 0.8018868, b: 0.8018868, a: 0}
