%YAML 1.1
%TAG !u! tag:unity3d.com,2011:
--- !u!114 &11400000
MonoBehaviour:
  m_ObjectHideFlags: 0
  m_CorrespondingSourceObject: {fileID: 0}
  m_PrefabInstance: {fileID: 0}
  m_PrefabAsset: {fileID: 0}
  m_GameObject: {fileID: 0}
  m_Enabled: 1
  m_EditorHideFlags: 0
  m_Script: {fileID: 11500000, guid: 995d948cc90f3374c96a8dfcbbb4b9ef, type: 3}
  m_Name: ACH_50Levels
  m_EditorClassIdentifier: 
  AchievementType: 2
  ID: CgkI-sa66KcaEAIQAw
  MaxValue: 1
